[gd_scene load_steps=20 format=2]

[sub_resource type="ArrayMesh" id=1]

resource_name = "Building-col"
blend_shape_mode = 1
custom_aabb = AABB( 0, 0, 0, 0, 0, 0 )
surfaces/0 = {
"aabb": AABB( -1, -1, -2.85714, 9.5, 5.54167, 3.85714 ),
"array_data": PoolByteArray( 255, 187, 255, 59, 146, 172, 0, 60, 179, 100, 0, 0, 32, 65, 137, 67, 0, 60, 0, 60, 179, 100, 0, 0, 32, 65, 137, 67, 146, 172, 0, 60, 179, 100, 0, 0, 247, 65, 126, 67, 146, 172, 0, 60, 77, 100, 0, 0, 232, 65, 137, 67, 146, 172, 0, 60, 77, 100, 0, 0, 232, 65, 137, 67, 0, 60, 0, 60, 77, 100, 0, 0, 128, 70, 255, 59, 0, 60, 0, 60, 0, 0, 126, 0, 32, 65, 137, 67, 0, 60, 0, 60, 0, 0, 126, 0, 255, 187, 255, 59, 0, 60, 0, 60, 0, 0, 126, 0, 232, 65, 137, 67, 0, 60, 0, 60, 0, 127, 0, 0, 32, 65, 137, 67, 146, 172, 0, 60, 0, 127, 0, 0, 32, 65, 137, 67, 0, 60, 0, 60, 0, 127, 0, 0, 32, 65, 137, 67, 146, 172, 0, 60, 179, 100, 0, 0, 28, 67, 138, 68, 182, 193, 0, 60, 179, 100, 0, 0, 0, 60, 27, 65, 255, 187, 0, 60, 179, 100, 0, 0, 227, 67, 138, 68, 182, 193, 0, 60, 77, 100, 0, 0, 63, 72, 0, 60, 146, 172, 0, 60, 77, 100, 0, 0, 64, 72, 0, 60, 182, 193, 0, 60, 77, 100, 0, 0, 0, 60, 27, 65, 255, 187, 0, 60, 129, 0, 0, 0, 255, 59, 0, 60, 182, 193, 0, 60, 129, 0, 0, 0, 0, 60, 0, 60, 255, 187, 0, 60, 129, 0, 0, 0, 28, 67, 138, 68, 182, 193, 0, 60, 0, 0, 130, 0, 227, 67, 138, 68, 182, 193, 0, 60, 0, 0, 130, 0, 255, 59, 0, 60, 182, 193, 0, 60, 0, 0, 130, 0, 0, 60, 27, 65, 255, 187, 0, 60, 0, 0, 129, 0, 0, 60, 0, 60, 255, 187, 0, 60, 0, 0, 129, 0, 0, 188, 0, 60, 255, 187, 0, 60, 0, 0, 129, 0, 28, 67, 138, 68, 146, 172, 0, 60, 0, 127, 0, 0, 227, 67, 138, 68, 182, 193, 0, 60, 0, 127, 0, 0, 28, 67, 138, 68, 182, 193, 0, 60, 0, 127, 0, 0, 64, 72, 0, 60, 182, 193, 0, 60, 127, 0, 0, 0, 64, 72, 0, 188, 146, 172, 0, 60, 127, 0, 0, 0, 64, 72, 0, 188, 182, 193, 0, 60, 127, 0, 0, 0, 63, 72, 0, 60, 146, 172, 0, 60, 0, 0, 127, 0, 128, 70, 0, 188, 146, 172, 0, 60, 0, 0, 127, 0, 64, 72, 0, 188, 146, 172, 0, 60, 0, 0, 127, 0, 64, 72, 0, 60, 182, 193, 0, 60, 0, 0, 129, 0, 0, 60, 0, 188, 182, 193, 0, 60, 0, 0, 129, 0, 255, 59, 0, 60, 182, 193, 0, 60, 0, 0, 129, 0, 255, 187, 255, 59, 0, 60, 0, 60, 129, 0, 0, 0, 255, 187, 255, 59, 146, 172, 0, 60, 129, 0, 0, 0, 0, 188, 0, 188, 0, 60, 0, 60, 129, 0, 0, 0, 128, 70, 255, 59, 0, 60, 0, 60, 0, 0, 127, 0, 0, 188, 0, 188, 0, 60, 0, 60, 0, 0, 127, 0, 128, 70, 0, 188, 0, 60, 0, 60, 0, 0, 127, 0, 0, 188, 0, 60, 255, 187, 0, 60, 0, 0, 129, 0, 0, 60, 0, 188, 0, 188, 0, 60, 0, 0, 129, 0, 0, 188, 0, 188, 0, 188, 0, 60, 0, 0, 129, 0, 128, 70, 0, 188, 146, 172, 0, 60, 0, 129, 0, 0, 0, 60, 0, 188, 182, 193, 0, 60, 0, 129, 0, 0, 64, 72, 0, 188, 182, 193, 0, 60, 0, 129, 0, 0, 128, 70, 0, 60, 146, 172, 0, 60, 127, 0, 0, 0, 128, 70, 0, 188, 0, 60, 0, 60, 127, 0, 0, 0, 128, 70, 0, 188, 146, 172, 0, 60, 127, 0, 0, 0, 0, 60, 0, 60, 255, 187, 0, 60, 129, 0, 0, 0, 0, 60, 0, 188, 182, 193, 0, 60, 129, 0, 0, 0, 0, 60, 0, 188, 0, 188, 0, 60, 129, 0, 0, 0, 28, 67, 138, 68, 146, 172, 0, 60, 0, 0, 127, 0, 32, 65, 137, 67, 146, 172, 0, 60, 0, 0, 127, 0, 232, 65, 137, 67, 146, 172, 0, 60, 0, 0, 127, 0, 255, 187, 255, 59, 146, 172, 0, 60, 179, 100, 0, 0, 255, 187, 255, 59, 0, 60, 0, 60, 179, 100, 0, 0, 32, 65, 137, 67, 0, 60, 0, 60, 179, 100, 0, 0, 232, 65, 137, 67, 0, 60, 0, 60, 78, 100, 0, 0, 128, 70, 255, 59, 0, 60, 0, 60, 78, 100, 0, 0, 247, 65, 126, 67, 146, 172, 0, 60, 78, 100, 0, 0, 128, 70, 0, 60, 146, 172, 0, 60, 78, 100, 0, 0, 247, 65, 126, 67, 146, 172, 0, 60, 78, 100, 0, 0, 128, 70, 255, 59, 0, 60, 0, 60, 78, 100, 0, 0, 128, 70, 255, 59, 0, 60, 0, 60, 0, 0, 127, 0, 232, 65, 137, 67, 0, 60, 0, 60, 0, 0, 127, 0, 32, 65, 137, 67, 0, 60, 0, 60, 0, 0, 127, 0, 232, 65, 137, 67, 146, 172, 0, 60, 0, 127, 0, 0, 0, 188, 0, 60, 255, 187, 0, 60, 179, 100, 0, 0, 255, 187, 255, 59, 146, 172, 0, 60, 179, 100, 0, 0, 0, 60, 27, 65, 255, 187, 0, 60, 179, 100, 0, 0, 32, 65, 137, 67, 146, 172, 0, 60, 179, 100, 0, 0, 28, 67, 138, 68, 146, 172, 0, 60, 179, 100, 0, 0, 28, 67, 138, 68, 182, 193, 0, 60, 179, 100, 0, 0, 28, 67, 138, 68, 182, 193, 0, 60, 179, 100, 0, 0, 255, 59, 27, 65, 182, 193, 0, 60, 179, 100, 0, 0, 0, 60, 27, 65, 255, 187, 0, 60, 179, 100, 0, 0, 0, 60, 27, 65, 255, 187, 0, 60, 179, 100, 0, 0, 255, 187, 255, 59, 146, 172, 0, 60, 179, 100, 0, 0, 32, 65, 137, 67, 146, 172, 0, 60, 179, 100, 0, 0, 227, 67, 138, 68, 182, 193, 0, 60, 77, 100, 0, 0, 227, 67, 138, 68, 146, 172, 0, 60, 77, 100, 0, 0, 63, 72, 0, 60, 146, 172, 0, 60, 77, 100, 0, 0, 0, 60, 27, 65, 255, 187, 0, 60, 129, 0, 0, 0, 255, 59, 27, 65, 182, 193, 0, 60, 129, 0, 0, 0, 255, 59, 0, 60, 182, 193, 0, 60, 129, 0, 0, 0, 64, 72, 0, 60, 182, 193, 0, 60, 0, 0, 129, 0, 255, 59, 0, 60, 182, 193, 0, 60, 0, 0, 129, 0, 227, 67, 138, 68, 182, 193, 0, 60, 0, 0, 129, 0, 255, 59, 27, 65, 182, 193, 0, 60, 0, 0, 129, 0, 28, 67, 138, 68, 182, 193, 0, 60, 0, 0, 129, 0, 28, 67, 138, 68, 146, 172, 0, 60, 0, 127, 0, 0, 227, 67, 138, 68, 146, 172, 0, 60, 0, 127, 0, 0, 227, 67, 138, 68, 182, 193, 0, 60, 0, 127, 0, 0, 64, 72, 0, 60, 182, 193, 0, 60, 127, 0, 0, 0, 63, 72, 0, 60, 146, 172, 0, 60, 127, 0, 0, 0, 64, 72, 0, 188, 146, 172, 0, 60, 127, 0, 0, 0, 63, 72, 0, 60, 146, 172, 0, 60, 0, 0, 127, 0, 128, 70, 0, 60, 146, 172, 0, 60, 0, 0, 127, 0, 128, 70, 0, 188, 146, 172, 0, 60, 0, 0, 127, 0, 64, 72, 0, 60, 182, 193, 0, 60, 0, 0, 129, 0, 64, 72, 0, 188, 182, 193, 0, 60, 0, 0, 129, 0, 0, 60, 0, 188, 182, 193, 0, 60, 0, 0, 129, 0, 0, 188, 0, 188, 0, 188, 0, 60, 129, 0, 0, 0, 0, 188, 0, 188, 0, 60, 0, 60, 129, 0, 0, 0, 255, 187, 255, 59, 146, 172, 0, 60, 129, 0, 0, 0, 255, 187, 255, 59, 146, 172, 0, 60, 130, 0, 0, 0, 0, 188, 0, 60, 255, 187, 0, 60, 130, 0, 0, 0, 0, 188, 0, 188, 0, 188, 0, 60, 130, 0, 0, 0, 128, 70, 255, 59, 0, 60, 0, 60, 0, 0, 127, 0, 255, 187, 255, 59, 0, 60, 0, 60, 0, 0, 127, 0, 0, 188, 0, 188, 0, 60, 0, 60, 0, 0, 127, 0, 0, 60, 0, 60, 255, 187, 0, 60, 0, 0, 129, 0, 128, 70, 0, 188, 0, 60, 0, 60, 0, 129, 0, 0, 0, 60, 0, 188, 0, 188, 0, 60, 0, 129, 0, 0, 0, 188, 0, 188, 0, 60, 0, 60, 0, 129, 0, 0, 0, 188, 0, 188, 0, 188, 0, 60, 0, 129, 0, 0, 64, 72, 0, 188, 146, 172, 0, 60, 0, 129, 0, 0, 128, 70, 255, 59, 0, 60, 0, 60, 127, 0, 0, 0, 0, 60, 0, 60, 255, 187, 0, 60, 129, 0, 0, 0, 255, 59, 0, 60, 182, 193, 0, 60, 129, 0, 0, 0, 0, 60, 0, 188, 182, 193, 0, 60, 129, 0, 0, 0, 128, 70, 0, 60, 146, 172, 0, 60, 0, 0, 127, 0, 63, 72, 0, 60, 146, 172, 0, 60, 0, 0, 127, 0, 227, 67, 138, 68, 146, 172, 0, 60, 0, 0, 127, 0, 227, 67, 138, 68, 146, 172, 0, 60, 0, 0, 127, 0, 28, 67, 138, 68, 146, 172, 0, 60, 0, 0, 127, 0, 232, 65, 137, 67, 146, 172, 0, 60, 0, 0, 127, 0, 232, 65, 137, 67, 146, 172, 0, 60, 0, 0, 127, 0, 128, 70, 0, 60, 146, 172, 0, 60, 0, 0, 127, 0, 227, 67, 138, 68, 146, 172, 0, 60, 0, 0, 127, 0 ),
"array_index_data": PoolByteArray( 0, 0, 2, 0, 1, 0, 3, 0, 5, 0, 4, 0, 6, 0, 8, 0, 7, 0, 9, 0, 11, 0, 10, 0, 12, 0, 14, 0, 13, 0, 15, 0, 17, 0, 16, 0, 18, 0, 20, 0, 19, 0, 21, 0, 23, 0, 22, 0, 24, 0, 26, 0, 25, 0, 27, 0, 29, 0, 28, 0, 30, 0, 32, 0, 31, 0, 33, 0, 35, 0, 34, 0, 36, 0, 38, 0, 37, 0, 39, 0, 41, 0, 40, 0, 42, 0, 44, 0, 43, 0, 45, 0, 47, 0, 46, 0, 48, 0, 50, 0, 49, 0, 51, 0, 53, 0, 52, 0, 54, 0, 56, 0, 55, 0, 57, 0, 59, 0, 58, 0, 60, 0, 62, 0, 61, 0, 63, 0, 65, 0, 64, 0, 66, 0, 68, 0, 67, 0, 69, 0, 71, 0, 70, 0, 9, 0, 10, 0, 72, 0, 73, 0, 75, 0, 74, 0, 76, 0, 78, 0, 77, 0, 79, 0, 81, 0, 80, 0, 82, 0, 84, 0, 83, 0, 85, 0, 87, 0, 86, 0, 88, 0, 90, 0, 89, 0, 91, 0, 93, 0, 92, 0, 94, 0, 92, 0, 95, 0, 96, 0, 98, 0, 97, 0, 99, 0, 101, 0, 100, 0, 102, 0, 104, 0, 103, 0, 105, 0, 107, 0, 106, 0, 108, 0, 110, 0, 109, 0, 111, 0, 113, 0, 112, 0, 114, 0, 116, 0, 115, 0, 45, 0, 46, 0, 117, 0, 48, 0, 119, 0, 118, 0, 120, 0, 119, 0, 121, 0, 119, 0, 48, 0, 49, 0, 50, 0, 48, 0, 122, 0, 118, 0, 119, 0, 120, 0, 51, 0, 52, 0, 123, 0, 124, 0, 126, 0, 125, 0, 127, 0, 129, 0, 128, 0, 130, 0, 132, 0, 131, 0, 133, 0, 135, 0, 134, 0 ),
"blend_shape_data": [  ],
"format": 98051,
"index_count": 153,
"primitive": 4,
"skeleton_aabb": [  ],
"vertex_count": 136
}

[sub_resource type="ArrayMesh" id=2]

resource_name = "Room0-col"
blend_shape_mode = 1
custom_aabb = AABB( 0, 0, 0, 0, 0, 0 )
surfaces/0 = {
"aabb": AABB( -1, -1, -1, 2, 2.00001, 2.00001 ),
"array_data": PoolByteArray( 0, 188, 0, 60, 0, 60, 0, 60, 129, 0, 0, 0, 0, 188, 0, 188, 0, 188, 0, 60, 129, 0, 0, 0, 0, 188, 0, 188, 0, 60, 0, 60, 129, 0, 0, 0, 0, 188, 0, 60, 0, 188, 0, 60, 0, 0, 129, 0, 0, 60, 0, 188, 0, 188, 0, 60, 0, 0, 129, 0, 0, 188, 0, 188, 0, 188, 0, 60, 0, 0, 129, 0, 0, 60, 0, 60, 0, 188, 0, 60, 127, 0, 0, 0, 0, 60, 0, 188, 0, 60, 0, 60, 127, 0, 0, 0, 0, 60, 0, 188, 0, 188, 0, 60, 127, 0, 0, 0, 0, 60, 0, 60, 0, 60, 0, 60, 0, 0, 127, 0, 0, 188, 0, 188, 0, 60, 0, 60, 0, 0, 127, 0, 0, 60, 0, 188, 0, 60, 0, 60, 0, 0, 127, 0, 0, 60, 0, 188, 0, 188, 0, 60, 0, 129, 0, 0, 0, 188, 0, 188, 0, 60, 0, 60, 0, 129, 0, 0, 0, 188, 0, 188, 0, 188, 0, 60, 0, 129, 0, 0, 0, 188, 0, 60, 0, 188, 0, 60, 0, 127, 0, 0, 0, 60, 0, 60, 0, 60, 0, 60, 0, 127, 0, 0, 0, 60, 0, 60, 0, 188, 0, 60, 0, 127, 0, 0, 0, 188, 0, 60, 0, 188, 0, 60, 129, 0, 0, 0, 0, 60, 0, 60, 0, 188, 0, 60, 0, 0, 129, 0, 0, 60, 0, 60, 0, 60, 0, 60, 127, 0, 0, 0, 0, 188, 0, 60, 0, 60, 0, 60, 0, 0, 127, 0, 0, 60, 0, 188, 0, 60, 0, 60, 0, 129, 0, 0, 0, 188, 0, 60, 0, 60, 0, 60, 0, 127, 0, 0 ),
"array_index_data": PoolByteArray( 0, 0, 2, 0, 1, 0, 3, 0, 5, 0, 4, 0, 6, 0, 8, 0, 7, 0, 9, 0, 11, 0, 10, 0, 12, 0, 14, 0, 13, 0, 15, 0, 17, 0, 16, 0, 0, 0, 1, 0, 18, 0, 3, 0, 4, 0, 19, 0, 6, 0, 7, 0, 20, 0, 9, 0, 10, 0, 21, 0, 12, 0, 13, 0, 22, 0, 15, 0, 16, 0, 23, 0 ),
"blend_shape_data": [  ],
"format": 98051,
"index_count": 36,
"primitive": 4,
"skeleton_aabb": [  ],
"vertex_count": 24
}

[sub_resource type="ConcavePolygonShape" id=3]

data = PoolVector3Array( -1, 1, 1, -1, -1, 1, -1, -1, -1, -1, 1, -1, -1, -1, -1, 1, -1, -1, 1, 1, -1, 1, -1, -1, 1, -1, 1, 1, 1, 1, 1, -1, 1, -1, -1, 1, 1, -1, -1, -1, -1, -1, -1, -1, 1, -1, 1, -1, 1, 1, -1, 1, 1, 1, -1, 1, 1, -1, -1, -1, -1, 1, -1, -1, 1, -1, 1, -1, -1, 1, 1, -1, 1, 1, -1, 1, -1, 1, 1, 1, 1, 1, 1, 1, -1, -1, 1, -1, 1, 1, 1, -1, -1, -1, -1, 1, 1, -1, 1, -1, 1, -1, 1, 1, 1, -1, 1, 1 )

[sub_resource type="ArrayMesh" id=4]

resource_name = "Room1-col"
blend_shape_mode = 1
custom_aabb = AABB( 0, 0, 0, 0, 0, 0 )
surfaces/0 = {
"aabb": AABB( -1, -1, -1, 2, 2.00001, 2.00001 ),
"array_data": PoolByteArray( 0, 188, 0, 60, 0, 60, 0, 60, 129, 0, 0, 0, 0, 188, 0, 188, 0, 188, 0, 60, 129, 0, 0, 0, 0, 188, 0, 188, 0, 60, 0, 60, 129, 0, 0, 0, 0, 188, 0, 60, 0, 188, 0, 60, 0, 0, 129, 0, 0, 60, 0, 188, 0, 188, 0, 60, 0, 0, 129, 0, 0, 188, 0, 188, 0, 188, 0, 60, 0, 0, 129, 0, 0, 60, 0, 60, 0, 188, 0, 60, 127, 0, 0, 0, 0, 60, 0, 188, 0, 60, 0, 60, 127, 0, 0, 0, 0, 60, 0, 188, 0, 188, 0, 60, 127, 0, 0, 0, 0, 60, 0, 60, 0, 60, 0, 60, 0, 0, 127, 0, 0, 188, 0, 188, 0, 60, 0, 60, 0, 0, 127, 0, 0, 60, 0, 188, 0, 60, 0, 60, 0, 0, 127, 0, 0, 60, 0, 188, 0, 188, 0, 60, 0, 129, 0, 0, 0, 188, 0, 188, 0, 60, 0, 60, 0, 129, 0, 0, 0, 188, 0, 188, 0, 188, 0, 60, 0, 129, 0, 0, 0, 188, 0, 60, 0, 188, 0, 60, 0, 127, 0, 0, 0, 60, 0, 60, 0, 60, 0, 60, 0, 127, 0, 0, 0, 60, 0, 60, 0, 188, 0, 60, 0, 127, 0, 0, 0, 188, 0, 60, 0, 188, 0, 60, 129, 0, 0, 0, 0, 60, 0, 60, 0, 188, 0, 60, 0, 0, 129, 0, 0, 60, 0, 60, 0, 60, 0, 60, 127, 0, 0, 0, 0, 188, 0, 60, 0, 60, 0, 60, 0, 0, 127, 0, 0, 60, 0, 188, 0, 60, 0, 60, 0, 129, 0, 0, 0, 188, 0, 60, 0, 60, 0, 60, 0, 127, 0, 0 ),
"array_index_data": PoolByteArray( 0, 0, 2, 0, 1, 0, 3, 0, 5, 0, 4, 0, 6, 0, 8, 0, 7, 0, 9, 0, 11, 0, 10, 0, 12, 0, 14, 0, 13, 0, 15, 0, 17, 0, 16, 0, 0, 0, 1, 0, 18, 0, 3, 0, 4, 0, 19, 0, 6, 0, 7, 0, 20, 0, 9, 0, 10, 0, 21, 0, 12, 0, 13, 0, 22, 0, 15, 0, 16, 0, 23, 0 ),
"blend_shape_data": [  ],
"format": 98051,
"index_count": 36,
"primitive": 4,
"skeleton_aabb": [  ],
"vertex_count": 24
}

[sub_resource type="ConcavePolygonShape" id=5]

data = PoolVector3Array( -1, 1, 1, -1, -1, 1, -1, -1, -1, -1, 1, -1, -1, -1, -1, 1, -1, -1, 1, 1, -1, 1, -1, -1, 1, -1, 1, 1, 1, 1, 1, -1, 1, -1, -1, 1, 1, -1, -1, -1, -1, -1, -1, -1, 1, -1, 1, -1, 1, 1, -1, 1, 1, 1, -1, 1, 1, -1, -1, -1, -1, 1, -1, -1, 1, -1, 1, -1, -1, 1, 1, -1, 1, 1, -1, 1, -1, 1, 1, 1, 1, 1, 1, 1, -1, -1, 1, -1, 1, 1, 1, -1, -1, -1, -1, 1, 1, -1, 1, -1, 1, -1, 1, 1, 1, -1, 1, 1 )

[sub_resource type="ArrayMesh" id=6]

resource_name = "Room2-col"
blend_shape_mode = 1
custom_aabb = AABB( 0, 0, 0, 0, 0, 0 )
surfaces/0 = {
"aabb": AABB( -1, -1, -1, 2, 2.00001, 2.00001 ),
"array_data": PoolByteArray( 0, 188, 0, 60, 0, 60, 0, 60, 129, 0, 0, 0, 0, 188, 0, 188, 0, 188, 0, 60, 129, 0, 0, 0, 0, 188, 0, 188, 0, 60, 0, 60, 129, 0, 0, 0, 0, 188, 0, 60, 0, 188, 0, 60, 0, 0, 129, 0, 0, 60, 0, 188, 0, 188, 0, 60, 0, 0, 129, 0, 0, 188, 0, 188, 0, 188, 0, 60, 0, 0, 129, 0, 0, 60, 0, 60, 0, 188, 0, 60, 127, 0, 0, 0, 0, 60, 0, 188, 0, 60, 0, 60, 127, 0, 0, 0, 0, 60, 0, 188, 0, 188, 0, 60, 127, 0, 0, 0, 0, 60, 0, 60, 0, 60, 0, 60, 0, 0, 127, 0, 0, 188, 0, 188, 0, 60, 0, 60, 0, 0, 127, 0, 0, 60, 0, 188, 0, 60, 0, 60, 0, 0, 127, 0, 0, 60, 0, 188, 0, 188, 0, 60, 0, 129, 0, 0, 0, 188, 0, 188, 0, 60, 0, 60, 0, 129, 0, 0, 0, 188, 0, 188, 0, 188, 0, 60, 0, 129, 0, 0, 0, 188, 0, 60, 0, 188, 0, 60, 0, 127, 0, 0, 0, 60, 0, 60, 0, 60, 0, 60, 0, 127, 0, 0, 0, 60, 0, 60, 0, 188, 0, 60, 0, 127, 0, 0, 0, 188, 0, 60, 0, 188, 0, 60, 129, 0, 0, 0, 0, 60, 0, 60, 0, 188, 0, 60, 0, 0, 129, 0, 0, 60, 0, 60, 0, 60, 0, 60, 127, 0, 0, 0, 0, 188, 0, 60, 0, 60, 0, 60, 0, 0, 127, 0, 0, 60, 0, 188, 0, 60, 0, 60, 0, 129, 0, 0, 0, 188, 0, 60, 0, 60, 0, 60, 0, 127, 0, 0 ),
"array_index_data": PoolByteArray( 0, 0, 2, 0, 1, 0, 3, 0, 5, 0, 4, 0, 6, 0, 8, 0, 7, 0, 9, 0, 11, 0, 10, 0, 12, 0, 14, 0, 13, 0, 15, 0, 17, 0, 16, 0, 0, 0, 1, 0, 18, 0, 3, 0, 4, 0, 19, 0, 6, 0, 7, 0, 20, 0, 9, 0, 10, 0, 21, 0, 12, 0, 13, 0, 22, 0, 15, 0, 16, 0, 23, 0 ),
"blend_shape_data": [  ],
"format": 98051,
"index_count": 36,
"primitive": 4,
"skeleton_aabb": [  ],
"vertex_count": 24
}

[sub_resource type="ConcavePolygonShape" id=7]

data = PoolVector3Array( -1, 1, 1, -1, -1, 1, -1, -1, -1, -1, 1, -1, -1, -1, -1, 1, -1, -1, 1, 1, -1, 1, -1, -1, 1, -1, 1, 1, 1, 1, 1, -1, 1, -1, -1, 1, 1, -1, -1, -1, -1, -1, -1, -1, 1, -1, 1, -1, 1, 1, -1, 1, 1, 1, -1, 1, 1, -1, -1, -1, -1, 1, -1, -1, 1, -1, 1, -1, -1, 1, 1, -1, 1, 1, -1, 1, -1, 1, 1, 1, 1, 1, 1, 1, -1, -1, 1, -1, 1, 1, 1, -1, -1, -1, -1, 1, 1, -1, 1, -1, 1, -1, 1, 1, 1, -1, 1, 1 )

[sub_resource type="ArrayMesh" id=8]

resource_name = "Room3-col"
blend_shape_mode = 1
custom_aabb = AABB( 0, 0, 0, 0, 0, 0 )
surfaces/0 = {
"aabb": AABB( -1, -1, -1, 2, 2.00001, 2.00001 ),
"array_data": PoolByteArray( 0, 188, 0, 60, 0, 60, 0, 60, 129, 0, 0, 0, 0, 188, 0, 188, 0, 188, 0, 60, 129, 0, 0, 0, 0, 188, 0, 188, 0, 60, 0, 60, 129, 0, 0, 0, 0, 188, 0, 60, 0, 188, 0, 60, 0, 0, 129, 0, 0, 60, 0, 188, 0, 188, 0, 60, 0, 0, 129, 0, 0, 188, 0, 188, 0, 188, 0, 60, 0, 0, 129, 0, 0, 60, 0, 60, 0, 188, 0, 60, 127, 0, 0, 0, 0, 60, 0, 188, 0, 60, 0, 60, 127, 0, 0, 0, 0, 60, 0, 188, 0, 188, 0, 60, 127, 0, 0, 0, 0, 60, 0, 60, 0, 60, 0, 60, 0, 0, 127, 0, 0, 188, 0, 188, 0, 60, 0, 60, 0, 0, 127, 0, 0, 60, 0, 188, 0, 60, 0, 60, 0, 0, 127, 0, 0, 60, 0, 188, 0, 188, 0, 60, 0, 129, 0, 0, 0, 188, 0, 188, 0, 60, 0, 60, 0, 129, 0, 0, 0, 188, 0, 188, 0, 188, 0, 60, 0, 129, 0, 0, 0, 188, 0, 60, 0, 188, 0, 60, 0, 127, 0, 0, 0, 60, 0, 60, 0, 60, 0, 60, 0, 127, 0, 0, 0, 60, 0, 60, 0, 188, 0, 60, 0, 127, 0, 0, 0, 188, 0, 60, 0, 188, 0, 60, 129, 0, 0, 0, 0, 60, 0, 60, 0, 188, 0, 60, 0, 0, 129, 0, 0, 60, 0, 60, 0, 60, 0, 60, 127, 0, 0, 0, 0, 188, 0, 60, 0, 60, 0, 60, 0, 0, 127, 0, 0, 60, 0, 188, 0, 60, 0, 60, 0, 129, 0, 0, 0, 188, 0, 60, 0, 60, 0, 60, 0, 127, 0, 0 ),
"array_index_data": PoolByteArray( 0, 0, 2, 0, 1, 0, 3, 0, 5, 0, 4, 0, 6, 0, 8, 0, 7, 0, 9, 0, 11, 0, 10, 0, 12, 0, 14, 0, 13, 0, 15, 0, 17, 0, 16, 0, 0, 0, 1, 0, 18, 0, 3, 0, 4, 0, 19, 0, 6, 0, 7, 0, 20, 0, 9, 0, 10, 0, 21, 0, 12, 0, 13, 0, 22, 0, 15, 0, 16, 0, 23, 0 ),
"blend_shape_data": [  ],
"format": 98051,
"index_count": 36,
"primitive": 4,
"skeleton_aabb": [  ],
"vertex_count": 24
}

[sub_resource type="ConcavePolygonShape" id=9]

data = PoolVector3Array( -1, 1, 1, -1, -1, 1, -1, -1, -1, -1, 1, -1, -1, -1, -1, 1, -1, -1, 1, 1, -1, 1, -1, -1, 1, -1, 1, 1, 1, 1, 1, -1, 1, -1, -1, 1, 1, -1, -1, -1, -1, -1, -1, -1, 1, -1, 1, -1, 1, 1, -1, 1, 1, 1, -1, 1, 1, -1, -1, -1, -1, 1, -1, -1, 1, -1, 1, -1, -1, 1, 1, -1, 1, 1, -1, 1, -1, 1, 1, 1, 1, 1, 1, 1, -1, -1, 1, -1, 1, 1, 1, -1, -1, -1, -1, 1, 1, -1, 1, -1, 1, -1, 1, 1, 1, -1, 1, 1 )

[sub_resource type="ArrayMesh" id=10]

resource_name = "Room4-col"
blend_shape_mode = 1
custom_aabb = AABB( 0, 0, 0, 0, 0, 0 )
surfaces/0 = {
"aabb": AABB( -1, -1, -1, 2, 2.00001, 2.00001 ),
"array_data": PoolByteArray( 0, 188, 0, 60, 0, 60, 0, 60, 129, 0, 0, 0, 0, 188, 0, 188, 0, 188, 0, 60, 129, 0, 0, 0, 0, 188, 0, 188, 0, 60, 0, 60, 129, 0, 0, 0, 0, 188, 0, 60, 0, 188, 0, 60, 0, 0, 129, 0, 0, 60, 0, 188, 0, 188, 0, 60, 0, 0, 129, 0, 0, 188, 0, 188, 0, 188, 0, 60, 0, 0, 129, 0, 0, 60, 0, 60, 0, 188, 0, 60, 127, 0, 0, 0, 0, 60, 0, 188, 0, 60, 0, 60, 127, 0, 0, 0, 0, 60, 0, 188, 0, 188, 0, 60, 127, 0, 0, 0, 0, 60, 0, 60, 0, 60, 0, 60, 0, 0, 127, 0, 0, 188, 0, 188, 0, 60, 0, 60, 0, 0, 127, 0, 0, 60, 0, 188, 0, 60, 0, 60, 0, 0, 127, 0, 0, 60, 0, 188, 0, 188, 0, 60, 0, 129, 0, 0, 0, 188, 0, 188, 0, 60, 0, 60, 0, 129, 0, 0, 0, 188, 0, 188, 0, 188, 0, 60, 0, 129, 0, 0, 0, 188, 0, 60, 0, 188, 0, 60, 0, 127, 0, 0, 0, 60, 0, 60, 0, 60, 0, 60, 0, 127, 0, 0, 0, 60, 0, 60, 0, 188, 0, 60, 0, 127, 0, 0, 0, 188, 0, 60, 0, 188, 0, 60, 129, 0, 0, 0, 0, 60, 0, 60, 0, 188, 0, 60, 0, 0, 129, 0, 0, 60, 0, 60, 0, 60, 0, 60, 127, 0, 0, 0, 0, 188, 0, 60, 0, 60, 0, 60, 0, 0, 127, 0, 0, 60, 0, 188, 0, 60, 0, 60, 0, 129, 0, 0, 0, 188, 0, 60, 0, 60, 0, 60, 0, 127, 0, 0 ),
"array_index_data": PoolByteArray( 0, 0, 2, 0, 1, 0, 3, 0, 5, 0, 4, 0, 6, 0, 8, 0, 7, 0, 9, 0, 11, 0, 10, 0, 12, 0, 14, 0, 13, 0, 15, 0, 17, 0, 16, 0, 0, 0, 1, 0, 18, 0, 3, 0, 4, 0, 19, 0, 6, 0, 7, 0, 20, 0, 9, 0, 10, 0, 21, 0, 12, 0, 13, 0, 22, 0, 15, 0, 16, 0, 23, 0 ),
"blend_shape_data": [  ],
"format": 98051,
"index_count": 36,
"primitive": 4,
"skeleton_aabb": [  ],
"vertex_count": 24
}

[sub_resource type="ConcavePolygonShape" id=11]

data = PoolVector3Array( -1, 1, 1, -1, -1, 1, -1, -1, -1, -1, 1, -1, -1, -1, -1, 1, -1, -1, 1, 1, -1, 1, -1, -1, 1, -1, 1, 1, 1, 1, 1, -1, 1, -1, -1, 1, 1, -1, -1, -1, -1, -1, -1, -1, 1, -1, 1, -1, 1, 1, -1, 1, 1, 1, -1, 1, 1, -1, -1, -1, -1, 1, -1, -1, 1, -1, 1, -1, -1, 1, 1, -1, 1, 1, -1, 1, -1, 1, 1, 1, 1, 1, 1, 1, -1, -1, 1, -1, 1, 1, 1, -1, -1, -1, -1, 1, 1, -1, 1, -1, 1, -1, 1, 1, 1, -1, 1, 1 )

[sub_resource type="ArrayMesh" id=12]

resource_name = "Room5-col"
blend_shape_mode = 1
custom_aabb = AABB( 0, 0, 0, 0, 0, 0 )
surfaces/0 = {
"aabb": AABB( -1, -1, -1, 2, 2, 2.00001 ),
"array_data": PoolByteArray( 0, 188, 254, 187, 0, 60, 0, 60, 129, 0, 0, 0, 0, 188, 0, 188, 0, 188, 0, 60, 129, 0, 0, 0, 0, 188, 0, 188, 0, 60, 0, 60, 129, 0, 0, 0, 46, 168, 0, 60, 0, 188, 0, 60, 0, 0, 129, 0, 0, 60, 0, 60, 0, 188, 0, 60, 0, 0, 129, 0, 0, 60, 0, 188, 0, 188, 0, 60, 0, 0, 129, 0, 0, 60, 0, 60, 0, 188, 0, 60, 127, 0, 0, 0, 0, 60, 0, 188, 0, 60, 0, 60, 127, 0, 0, 0, 0, 60, 0, 188, 0, 188, 0, 60, 127, 0, 0, 0, 46, 168, 0, 60, 0, 60, 0, 60, 0, 0, 127, 0, 0, 188, 254, 187, 0, 60, 0, 60, 0, 0, 127, 0, 0, 60, 0, 188, 0, 60, 0, 60, 0, 0, 127, 0, 0, 60, 0, 188, 0, 188, 0, 60, 0, 129, 0, 0, 0, 188, 0, 188, 0, 60, 0, 60, 0, 129, 0, 0, 0, 188, 0, 188, 0, 188, 0, 60, 0, 129, 0, 0, 46, 168, 0, 60, 0, 188, 0, 60, 0, 127, 0, 0, 0, 60, 0, 60, 0, 60, 0, 60, 0, 127, 0, 0, 0, 60, 0, 60, 0, 188, 0, 60, 0, 127, 0, 0, 46, 168, 0, 60, 0, 188, 0, 60, 142, 55, 0, 0, 0, 188, 254, 187, 0, 60, 0, 60, 142, 55, 0, 0, 46, 168, 0, 60, 0, 60, 0, 60, 142, 55, 0, 0, 0, 188, 254, 187, 0, 188, 0, 60, 129, 0, 0, 0, 0, 188, 0, 188, 0, 188, 0, 60, 0, 0, 129, 0, 0, 188, 254, 187, 0, 188, 0, 60, 0, 0, 129, 0, 0, 60, 0, 60, 0, 60, 0, 60, 127, 0, 0, 0, 0, 188, 0, 188, 0, 60, 0, 60, 0, 0, 127, 0, 0, 60, 0, 60, 0, 60, 0, 60, 0, 0, 127, 0, 0, 60, 0, 188, 0, 60, 0, 60, 0, 129, 0, 0, 46, 168, 0, 60, 0, 60, 0, 60, 0, 127, 0, 0, 46, 168, 0, 60, 0, 188, 0, 60, 142, 55, 0, 0, 0, 188, 254, 187, 0, 188, 0, 60, 142, 55, 0, 0, 0, 188, 254, 187, 0, 60, 0, 60, 142, 55, 0, 0 ),
"array_index_data": PoolByteArray( 0, 0, 2, 0, 1, 0, 3, 0, 5, 0, 4, 0, 6, 0, 8, 0, 7, 0, 9, 0, 11, 0, 10, 0, 12, 0, 14, 0, 13, 0, 15, 0, 17, 0, 16, 0, 18, 0, 20, 0, 19, 0, 0, 0, 1, 0, 21, 0, 5, 0, 23, 0, 22, 0, 23, 0, 5, 0, 3, 0, 6, 0, 7, 0, 24, 0, 25, 0, 10, 0, 11, 0, 26, 0, 11, 0, 9, 0, 12, 0, 13, 0, 27, 0, 15, 0, 16, 0, 28, 0, 29, 0, 31, 0, 30, 0 ),
"blend_shape_data": [  ],
"format": 98051,
"index_count": 48,
"primitive": 4,
"skeleton_aabb": [  ],
"vertex_count": 32
}

[sub_resource type="ConcavePolygonShape" id=13]

data = PoolVector3Array( -1, -0.999, 1, -1, -1, 1, -1, -1, -1, -0.0327, 1, -1, 1, -1, -1, 1, 1, -1, 1, 1, -1, 1, -1, -1, 1, -1, 1, -0.0327, 1, 1, 1, -1, 1, -1, -0.999, 1, 1, -1, -1, -1, -1, -1, -1, -1, 1, -0.0327, 1, -1, 1, 1, -1, 1, 1, 1, -0.0327, 1, -1, -0.0327, 1, 1, -1, -0.999, 1, -1, -0.999, 1, -1, -1, -1, -1, -0.999, -1, 1, -1, -1, -1, -0.999, -1, -1, -1, -1, -1, -0.999, -1, 1, -1, -1, -0.0327, 1, -1, 1, 1, -1, 1, -1, 1, 1, 1, 1, -1, -1, 1, -1, -0.999, 1, 1, -1, 1, 1, 1, 1, 1, -1, 1, -0.0327, 1, 1, 1, -1, -1, -1, -1, 1, 1, -1, 1, -0.0327, 1, -1, 1, 1, 1, -0.0327, 1, 1, -0.0327, 1, -1, -1, -0.999, 1, -1, -0.999, -1 )

[sub_resource type="ArrayMesh" id=14]

resource_name = "Room6-col"
blend_shape_mode = 1
custom_aabb = AABB( 0, 0, 0, 0, 0, 0 )
surfaces/0 = {
"aabb": AABB( -1, -1, -1, 2, 2.00001, 2.00001 ),
"array_data": PoolByteArray( 0, 188, 0, 60, 0, 60, 0, 60, 129, 0, 0, 0, 0, 188, 0, 188, 0, 188, 0, 60, 129, 0, 0, 0, 0, 188, 0, 188, 0, 60, 0, 60, 129, 0, 0, 0, 52, 166, 0, 60, 0, 188, 0, 60, 0, 0, 129, 0, 0, 60, 254, 187, 0, 188, 0, 60, 0, 0, 129, 0, 0, 188, 0, 188, 0, 188, 0, 60, 0, 0, 129, 0, 0, 60, 254, 187, 0, 188, 0, 60, 127, 0, 0, 0, 0, 60, 0, 188, 0, 60, 0, 60, 127, 0, 0, 0, 0, 60, 0, 188, 0, 188, 0, 60, 127, 0, 0, 0, 242, 59, 227, 187, 0, 60, 0, 60, 0, 0, 127, 0, 52, 166, 0, 60, 0, 60, 0, 60, 0, 0, 127, 0, 0, 188, 0, 188, 0, 60, 0, 60, 0, 0, 127, 0, 0, 60, 0, 188, 0, 188, 0, 60, 0, 129, 0, 0, 0, 188, 0, 188, 0, 60, 0, 60, 0, 129, 0, 0, 0, 188, 0, 188, 0, 188, 0, 60, 0, 129, 0, 0, 52, 166, 0, 60, 0, 188, 0, 60, 0, 127, 0, 0, 0, 188, 0, 60, 0, 60, 0, 60, 0, 127, 0, 0, 52, 166, 0, 60, 0, 60, 0, 60, 0, 127, 0, 0, 52, 166, 0, 60, 0, 188, 0, 60, 113, 57, 0, 0, 242, 59, 227, 187, 0, 60, 0, 60, 113, 57, 0, 0, 0, 60, 254, 187, 0, 188, 0, 60, 113, 57, 0, 0, 0, 188, 0, 60, 0, 188, 0, 60, 129, 0, 0, 0, 0, 60, 0, 188, 0, 188, 0, 60, 0, 0, 129, 0, 0, 188, 0, 60, 0, 188, 0, 60, 0, 0, 129, 0, 0, 60, 254, 187, 0, 60, 0, 60, 127, 0, 0, 0, 0, 188, 0, 188, 0, 60, 0, 60, 0, 0, 126, 0, 0, 60, 0, 188, 0, 60, 0, 60, 0, 0, 126, 0, 242, 59, 227, 187, 0, 60, 0, 60, 0, 0, 126, 0, 0, 60, 254, 187, 0, 60, 0, 60, 0, 0, 126, 0, 242, 59, 227, 187, 0, 60, 0, 60, 0, 0, 126, 0, 0, 60, 0, 188, 0, 60, 0, 60, 0, 0, 126, 0, 52, 166, 0, 60, 0, 60, 0, 60, 0, 0, 127, 0, 0, 188, 0, 60, 0, 60, 0, 60, 0, 0, 127, 0, 0, 188, 0, 188, 0, 60, 0, 60, 0, 0, 127, 0, 0, 60, 0, 188, 0, 60, 0, 60, 0, 129, 0, 0, 0, 188, 0, 60, 0, 188, 0, 60, 0, 127, 0, 0, 0, 60, 254, 187, 0, 60, 0, 60, 113, 57, 0, 0, 0, 60, 254, 187, 0, 188, 0, 60, 113, 57, 0, 0, 242, 59, 227, 187, 0, 60, 0, 60, 113, 57, 0, 0, 52, 166, 0, 60, 0, 188, 0, 60, 113, 57, 0, 0, 52, 166, 0, 60, 0, 60, 0, 60, 113, 57, 0, 0, 242, 59, 227, 187, 0, 60, 0, 60, 113, 57, 0, 0 ),
"array_index_data": PoolByteArray( 0, 0, 2, 0, 1, 0, 3, 0, 5, 0, 4, 0, 6, 0, 8, 0, 7, 0, 9, 0, 11, 0, 10, 0, 12, 0, 14, 0, 13, 0, 15, 0, 17, 0, 16, 0, 18, 0, 20, 0, 19, 0, 0, 0, 1, 0, 21, 0, 22, 0, 4, 0, 5, 0, 23, 0, 5, 0, 3, 0, 6, 0, 7, 0, 24, 0, 25, 0, 27, 0, 26, 0, 28, 0, 30, 0, 29, 0, 31, 0, 33, 0, 32, 0, 12, 0, 13, 0, 34, 0, 15, 0, 16, 0, 35, 0, 36, 0, 38, 0, 37, 0, 39, 0, 41, 0, 40, 0 ),
"blend_shape_data": [  ],
"format": 98051,
"index_count": 54,
"primitive": 4,
"skeleton_aabb": [  ],
"vertex_count": 42
}

[sub_resource type="ConcavePolygonShape" id=15]

data = PoolVector3Array( -1, 1, 1, -1, -1, 1, -1, -1, -1, -0.0242, 1, -1, -1, -1, -1, 1, -0.999, -1, 1, -0.999, -1, 1, -1, -1, 1, -1, 1, 0.9932, -0.9858, 1, -1, -1, 1, -0.0242, 1, 1, 1, -1, -1, -1, -1, -1, -1, -1, 1, -0.0242, 1, -1, -0.0242, 1, 1, -1, 1, 1, -0.0242, 1, -1, 1, -0.999, -1, 0.9932, -0.9858, 1, -1, 1, 1, -1, -1, -1, -1, 1, -1, 1, -1, -1, 1, -0.999, -1, -1, -1, -1, -1, 1, -1, -1, -1, -1, -0.0242, 1, -1, 1, -0.999, -1, 1, -1, 1, 1, -0.999, 1, -1, -1, 1, 0.9932, -0.9858, 1, 1, -1, 1, 1, -0.999, 1, 1, -1, 1, 0.9932, -0.9858, 1, -0.0242, 1, 1, -1, -1, 1, -1, 1, 1, 1, -1, -1, -1, -1, 1, 1, -1, 1, -0.0242, 1, -1, -1, 1, 1, -1, 1, -1, 1, -0.999, 1, 0.9932, -0.9858, 1, 1, -0.999, -1, -0.0242, 1, -1, 0.9932, -0.9858, 1, -0.0242, 1, 1 )

[sub_resource type="ArrayMesh" id=16]

resource_name = "Room7-col"
blend_shape_mode = 1
custom_aabb = AABB( 0, 0, 0, 0, 0, 0 )
surfaces/0 = {
"aabb": AABB( -1, -1, -1, 2, 2.00001, 2.00001 ),
"array_data": PoolByteArray( 0, 188, 0, 60, 0, 60, 0, 60, 129, 0, 0, 0, 0, 188, 0, 188, 0, 188, 0, 60, 129, 0, 0, 0, 0, 188, 0, 188, 0, 60, 0, 60, 129, 0, 0, 0, 12, 54, 0, 60, 0, 188, 0, 60, 0, 0, 129, 0, 0, 60, 254, 187, 0, 188, 0, 60, 0, 0, 129, 0, 0, 188, 0, 188, 0, 188, 0, 60, 0, 0, 129, 0, 0, 60, 254, 187, 0, 188, 0, 60, 127, 0, 0, 0, 0, 60, 0, 188, 0, 60, 0, 60, 127, 0, 0, 0, 0, 60, 0, 188, 0, 188, 0, 60, 127, 0, 0, 0, 12, 54, 0, 60, 0, 60, 0, 60, 0, 0, 127, 0, 0, 188, 0, 60, 0, 60, 0, 60, 0, 0, 127, 0, 0, 188, 0, 188, 0, 60, 0, 60, 0, 0, 127, 0, 0, 60, 0, 188, 0, 188, 0, 60, 0, 129, 0, 0, 0, 188, 0, 188, 0, 60, 0, 60, 0, 129, 0, 0, 0, 188, 0, 188, 0, 188, 0, 60, 0, 129, 0, 0, 12, 54, 0, 60, 0, 188, 0, 60, 0, 127, 0, 0, 0, 188, 0, 60, 0, 60, 0, 60, 0, 127, 0, 0, 12, 54, 0, 60, 0, 60, 0, 60, 0, 127, 0, 0, 12, 54, 0, 60, 0, 188, 0, 60, 121, 37, 0, 0, 0, 60, 254, 187, 0, 60, 0, 60, 121, 37, 0, 0, 0, 60, 254, 187, 0, 188, 0, 60, 121, 37, 0, 0, 0, 188, 0, 60, 0, 188, 0, 60, 129, 0, 0, 0, 0, 60, 0, 188, 0, 188, 0, 60, 0, 0, 129, 0, 0, 188, 0, 60, 0, 188, 0, 60, 0, 0, 129, 0, 0, 60, 254, 187, 0, 60, 0, 60, 127, 0, 0, 0, 0, 60, 0, 188, 0, 60, 0, 60, 0, 0, 127, 0, 0, 60, 254, 187, 0, 60, 0, 60, 0, 0, 127, 0, 0, 60, 0, 188, 0, 60, 0, 60, 0, 129, 0, 0, 0, 188, 0, 60, 0, 188, 0, 60, 0, 127, 0, 0, 12, 54, 0, 60, 0, 60, 0, 60, 121, 37, 0, 0 ),
"array_index_data": PoolByteArray( 0, 0, 2, 0, 1, 0, 3, 0, 5, 0, 4, 0, 6, 0, 8, 0, 7, 0, 9, 0, 11, 0, 10, 0, 12, 0, 14, 0, 13, 0, 15, 0, 17, 0, 16, 0, 18, 0, 20, 0, 19, 0, 0, 0, 1, 0, 21, 0, 22, 0, 4, 0, 5, 0, 23, 0, 5, 0, 3, 0, 6, 0, 7, 0, 24, 0, 11, 0, 26, 0, 25, 0, 26, 0, 11, 0, 9, 0, 12, 0, 13, 0, 27, 0, 15, 0, 16, 0, 28, 0, 18, 0, 19, 0, 29, 0 ),
"blend_shape_data": [  ],
"format": 98051,
"index_count": 48,
"primitive": 4,
"skeleton_aabb": [  ],
"vertex_count": 30
}

[sub_resource type="ConcavePolygonShape" id=17]

data = PoolVector3Array( -1, 1, 1, -1, -1, 1, -1, -1, -1, 0.3779, 1, -1, -1, -1, -1, 1, -0.999, -1, 1, -0.999, -1, 1, -1, -1, 1, -1, 1, 0.3779, 1, 1, -1, -1, 1, -1, 1, 1, 1, -1, -1, -1, -1, -1, -1, -1, 1, 0.3779, 1, -1, 0.3779, 1, 1, -1, 1, 1, 0.3779, 1, -1, 1, -0.999, -1, 1, -0.999, 1, -1, 1, 1, -1, -1, -1, -1, 1, -1, 1, -1, -1, 1, -0.999, -1, -1, -1, -1, -1, 1, -1, -1, -1, -1, 0.3779, 1, -1, 1, -0.999, -1, 1, -1, 1, 1, -0.999, 1, -1, -1, 1, 1, -0.999, 1, 1, -1, 1, 1, -0.999, 1, -1, -1, 1, 0.3779, 1, 1, 1, -1, -1, -1, -1, 1, 1, -1, 1, 0.3779, 1, -1, -1, 1, 1, -1, 1, -1, 0.3779, 1, -1, 1, -0.999, 1, 0.3779, 1, 1 )

[sub_resource type="ArrayMesh" id=18]

resource_name = "Room8-col"
blend_shape_mode = 1
custom_aabb = AABB( 0, 0, 0, 0, 0, 0 )
surfaces/0 = {
"aabb": AABB( -1, -1, -1, 2, 2.00001, 2.00001 ),
"array_data": PoolByteArray( 0, 188, 0, 60, 0, 60, 0, 60, 129, 0, 0, 0, 0, 188, 0, 188, 0, 188, 0, 60, 129, 0, 0, 0, 0, 188, 0, 188, 0, 60, 0, 60, 129, 0, 0, 0, 12, 54, 0, 60, 0, 188, 0, 60, 0, 0, 129, 0, 0, 60, 254, 187, 0, 188, 0, 60, 0, 0, 129, 0, 0, 188, 0, 188, 0, 188, 0, 60, 0, 0, 129, 0, 0, 60, 254, 187, 0, 188, 0, 60, 127, 0, 0, 0, 0, 60, 0, 188, 0, 60, 0, 60, 127, 0, 0, 0, 0, 60, 0, 188, 0, 188, 0, 60, 127, 0, 0, 0, 12, 54, 0, 60, 0, 60, 0, 60, 0, 0, 127, 0, 0, 188, 0, 60, 0, 60, 0, 60, 0, 0, 127, 0, 0, 188, 0, 188, 0, 60, 0, 60, 0, 0, 127, 0, 0, 60, 0, 188, 0, 188, 0, 60, 0, 129, 0, 0, 0, 188, 0, 188, 0, 60, 0, 60, 0, 129, 0, 0, 0, 188, 0, 188, 0, 188, 0, 60, 0, 129, 0, 0, 12, 54, 0, 60, 0, 60, 0, 60, 0, 127, 0, 0, 0, 188, 0, 60, 0, 188, 0, 60, 0, 127, 0, 0, 0, 188, 0, 60, 0, 60, 0, 60, 0, 127, 0, 0, 12, 54, 0, 60, 0, 188, 0, 60, 121, 37, 0, 0, 0, 60, 254, 187, 0, 60, 0, 60, 121, 37, 0, 0, 0, 60, 254, 187, 0, 188, 0, 60, 121, 37, 0, 0, 0, 188, 0, 60, 0, 188, 0, 60, 129, 0, 0, 0, 0, 60, 0, 188, 0, 188, 0, 60, 0, 0, 129, 0, 0, 188, 0, 60, 0, 188, 0, 60, 0, 0, 129, 0, 0, 60, 254, 187, 0, 60, 0, 60, 127, 0, 0, 0, 0, 60, 0, 188, 0, 60, 0, 60, 0, 0, 127, 0, 0, 60, 254, 187, 0, 60, 0, 60, 0, 0, 127, 0, 0, 60, 0, 188, 0, 60, 0, 60, 0, 129, 0, 0, 12, 54, 0, 60, 0, 188, 0, 60, 0, 127, 0, 0, 12, 54, 0, 60, 0, 188, 0, 60, 121, 37, 0, 0, 12, 54, 0, 60, 0, 60, 0, 60, 121, 37, 0, 0, 0, 60, 254, 187, 0, 60, 0, 60, 121, 37, 0, 0 ),
"array_index_data": PoolByteArray( 0, 0, 2, 0, 1, 0, 3, 0, 5, 0, 4, 0, 6, 0, 8, 0, 7, 0, 9, 0, 11, 0, 10, 0, 12, 0, 14, 0, 13, 0, 15, 0, 17, 0, 16, 0, 18, 0, 20, 0, 19, 0, 0, 0, 1, 0, 21, 0, 22, 0, 4, 0, 5, 0, 23, 0, 5, 0, 3, 0, 6, 0, 7, 0, 24, 0, 11, 0, 26, 0, 25, 0, 26, 0, 11, 0, 9, 0, 12, 0, 13, 0, 27, 0, 15, 0, 16, 0, 28, 0, 29, 0, 31, 0, 30, 0 ),
"blend_shape_data": [  ],
"format": 98051,
"index_count": 48,
"primitive": 4,
"skeleton_aabb": [  ],
"vertex_count": 32
}

[sub_resource type="ConcavePolygonShape" id=19]

data = PoolVector3Array( -1, 1, 1, -1, -1, 1, -1, -1, -1, 0.3779, 1, -1, -1, -1, -1, 1, -0.999, -1, 1, -0.999, -1, 1, -1, -1, 1, -1, 1, 0.3779, 1, 1, -1, -1, 1, -1, 1, 1, 1, -1, -1, -1, -1, -1, -1, -1, 1, 0.3779, 1, 1, -1, 1, 1, -1, 1, -1, 0.3779, 1, -1, 1, -0.999, -1, 1, -0.999, 1, -1, 1, 1, -1, -1, -1, -1, 1, -1, 1, -1, -1, 1, -0.999, -1, -1, -1, -1, -1, 1, -1, -1, -1, -1, 0.3779, 1, -1, 1, -0.999, -1, 1, -1, 1, 1, -0.999, 1, -1, -1, 1, 1, -0.999, 1, 1, -1, 1, 1, -0.999, 1, -1, -1, 1, 0.3779, 1, 1, 1, -1, -1, -1, -1, 1, 1, -1, 1, 0.3779, 1, 1, -1, 1, -1, 0.3779, 1, -1, 0.3779, 1, -1, 1, -0.999, 1, 0.3779, 1, 1 )

[node name="Scene Root" type="Spatial"]

[node name="Building" type="MeshInstance" parent="." index="0"]

transform = Transform( 2, 0, 0, 0, 3.25, 0, 0, 0, 7, -7.5, -5.5, 6.5 )
layers = 1
material_override = null
cast_shadow = 1
extra_cull_margin = 0.0
use_in_baked_light = false
lod_min_distance = 0.0
lod_min_hysteresis = 0.0
lod_max_distance = 0.0
lod_max_hysteresis = 0.0
mesh = SubResource( 1 )
skeleton = NodePath("..")
material/0 = null

[node name="Floor0" type="Spatial" parent="Building" index="0"]

transform = Transform( 0.5, 0, 0, 0, 0.307692, 0, 0, 0, 0.142857, 4.75, 0, -1.46429 )

[node name="Room0" type="MeshInstance" parent="Building/Floor0" index="0"]

transform = Transform( 7, 0, 0, 0, 2.75, 0, 0, 0, 3.5, -4, 0, 13.25 )
layers = 1
material_override = null
cast_shadow = 1
extra_cull_margin = 0.0
use_in_baked_light = false
lod_min_distance = 0.0
lod_min_hysteresis = 0.0
lod_max_distance = 0.0
lod_max_hysteresis = 0.0
mesh = SubResource( 2 )
skeleton = NodePath("..")
material/0 = null

[node name="col" type="StaticBody" parent="Building/Floor0/Room0" index="0"]

input_ray_pickable = true
input_capture_on_drag = false
collision_layer = 1
collision_mask = 1
friction = 1.0
bounce = 0.0
constant_linear_velocity = Vector3( 0, 0, 0 )
constant_angular_velocity = Vector3( 0, 0, 0 )
_sections_unfolded = [ "Collision" ]

[node name="shape" type="CollisionShape" parent="Building/Floor0/Room0/col" index="0"]

shape = SubResource( 3 )
disabled = false

[node name="Room1" type="MeshInstance" parent="Building/Floor0" index="1"]

transform = Transform( 4.5, 0, 0, 0, 2.75, 0, 0, 0, 2.75, -6.5, 0, 6.5 )
layers = 1
material_override = null
cast_shadow = 1
extra_cull_margin = 0.0
use_in_baked_light = false
lod_min_distance = 0.0
lod_min_hysteresis = 0.0
lod_max_distance = 0.0
lod_max_hysteresis = 0.0
mesh = SubResource( 4 )
skeleton = NodePath("..")
material/0 = null

[node name="col" type="StaticBody" parent="Building/Floor0/Room1" index="0"]

editor/display_folded = true
input_ray_pickable = true
input_capture_on_drag = false
collision_layer = 1
collision_mask = 1
friction = 1.0
bounce = 0.0
constant_linear_velocity = Vector3( 0, 0, 0 )
constant_angular_velocity = Vector3( 0, 0, 0 )

[node name="shape" type="CollisionShape" parent="Building/Floor0/Room1/col" index="0"]

shape = SubResource( 5 )
disabled = false

[node name="Room2" type="MeshInstance" parent="Building/Floor0" index="2"]

transform = Transform( 4.25, 0, 0, 0, 2.75, 0, 0, 0, 2.75, 2.75, 0, 6.5 )
layers = 1
material_override = null
cast_shadow = 1
extra_cull_margin = 0.0
use_in_baked_light = false
lod_min_distance = 0.0
lod_min_hysteresis = 0.0
lod_max_distance = 0.0
lod_max_hysteresis = 0.0
mesh = SubResource( 6 )
skeleton = NodePath("..")
material/0 = null

[node name="col" type="StaticBody" parent="Building/Floor0/Room2" index="0"]

editor/display_folded = true
input_ray_pickable = true
input_capture_on_drag = false
collision_layer = 1
collision_mask = 1
friction = 1.0
bounce = 0.0
constant_linear_velocity = Vector3( 0, 0, 0 )
constant_angular_velocity = Vector3( 0, 0, 0 )

[node name="shape" type="CollisionShape" parent="Building/Floor0/Room2/col" index="0"]

shape = SubResource( 7 )
disabled = false

[node name="Room3" type="MeshInstance" parent="Building/Floor0" index="3"]

transform = Transform( 7, 0, 0, 0, 2.75, 0, 0, 0, 1.75, 0, 0, 1.5 )
layers = 1
material_override = null
cast_shadow = 1
extra_cull_margin = 0.0
use_in_baked_light = false
lod_min_distance = 0.0
lod_min_hysteresis = 0.0
lod_max_distance = 0.0
lod_max_hysteresis = 0.0
mesh = SubResource( 8 )
skeleton = NodePath("..")
material/0 = null

[node name="col" type="StaticBody" parent="Building/Floor0/Room3" index="0"]

editor/display_folded = true
input_ray_pickable = true
input_capture_on_drag = false
collision_layer = 1
collision_mask = 1
friction = 1.0
bounce = 0.0
constant_linear_velocity = Vector3( 0, 0, 0 )
constant_angular_velocity = Vector3( 0, 0, 0 )

[node name="shape" type="CollisionShape" parent="Building/Floor0/Room3/col" index="0"]

shape = SubResource( 9 )
disabled = false

[node name="Room4" type="MeshInstance" parent="Building/Floor0" index="4"]

transform = Transform( 7, 0, 0, 0, 2.75, 0, 0, 0, 4.25, 0, 0, -5 )
layers = 1
material_override = null
cast_shadow = 1
extra_cull_margin = 0.0
use_in_baked_light = false
lod_min_distance = 0.0
lod_min_hysteresis = 0.0
lod_max_distance = 0.0
lod_max_hysteresis = 0.0
mesh = SubResource( 10 )
skeleton = NodePath("..")
material/0 = null

[node name="col" type="StaticBody" parent="Building/Floor0/Room4" index="0"]

editor/display_folded = true
input_ray_pickable = true
input_capture_on_drag = false
collision_layer = 1
collision_mask = 1
friction = 1.0
bounce = 0.0
constant_linear_velocity = Vector3( 0, 0, 0 )
constant_angular_velocity = Vector3( 0, 0, 0 )

[node name="shape" type="CollisionShape" parent="Building/Floor0/Room4/col" index="0"]

shape = SubResource( 11 )
disabled = false

[node name="Floor1" type="Spatial" parent="Building" index="1"]

editor/display_folded = true
transform = Transform( 0.5, 0, 0, 0, 0.307692, 0, 0, 0, 0.142857, 4.75, 1.84615, -1.46429 )

[node name="Room5" type="MeshInstance" parent="Building/Floor1" index="0"]

transform = Transform( 4.5, 0, 0, 0, 2.75, 0, 0, 0, 2.75, -6.5, 0, 6.5 )
layers = 1
material_override = null
cast_shadow = 1
extra_cull_margin = 0.0
use_in_baked_light = false
lod_min_distance = 0.0
lod_min_hysteresis = 0.0
lod_max_distance = 0.0
lod_max_hysteresis = 0.0
mesh = SubResource( 12 )
skeleton = NodePath("..")
material/0 = null

[node name="col" type="StaticBody" parent="Building/Floor1/Room5" index="0"]

editor/display_folded = true
input_ray_pickable = true
input_capture_on_drag = false
collision_layer = 1
collision_mask = 1
friction = 1.0
bounce = 0.0
constant_linear_velocity = Vector3( 0, 0, 0 )
constant_angular_velocity = Vector3( 0, 0, 0 )

[node name="shape" type="CollisionShape" parent="Building/Floor1/Room5/col" index="0"]

shape = SubResource( 13 )
disabled = false

[node name="Room6" type="MeshInstance" parent="Building/Floor1" index="1"]

transform = Transform( 4.25, 0, 0, 0, 2.75, 0, 0, 0, 2.75, 2.75, 0, 6.5 )
layers = 1
material_override = null
cast_shadow = 1
extra_cull_margin = 0.0
use_in_baked_light = false
lod_min_distance = 0.0
lod_min_hysteresis = 0.0
lod_max_distance = 0.0
lod_max_hysteresis = 0.0
mesh = SubResource( 14 )
skeleton = NodePath("..")
material/0 = null

[node name="col" type="StaticBody" parent="Building/Floor1/Room6" index="0"]

editor/display_folded = true
input_ray_pickable = true
input_capture_on_drag = false
collision_layer = 1
collision_mask = 1
friction = 1.0
bounce = 0.0
constant_linear_velocity = Vector3( 0, 0, 0 )
constant_angular_velocity = Vector3( 0, 0, 0 )

[node name="shape" type="CollisionShape" parent="Building/Floor1/Room6/col" index="0"]

shape = SubResource( 15 )
disabled = false

[node name="Room7" type="MeshInstance" parent="Building/Floor1" index="2"]

transform = Transform( 7, 0, 0, 0, 2.75, 0, 0, 0, 1.75, 0, 0, 1.5 )
layers = 1
material_override = null
cast_shadow = 1
extra_cull_margin = 0.0
use_in_baked_light = false
lod_min_distance = 0.0
lod_min_hysteresis = 0.0
lod_max_distance = 0.0
lod_max_hysteresis = 0.0
mesh = SubResource( 16 )
skeleton = NodePath("..")
material/0 = null

[node name="col" type="StaticBody" parent="Building/Floor1/Room7" index="0"]

editor/display_folded = true
input_ray_pickable = true
input_capture_on_drag = false
collision_layer = 1
collision_mask = 1
friction = 1.0
bounce = 0.0
constant_linear_velocity = Vector3( 0, 0, 0 )
constant_angular_velocity = Vector3( 0, 0, 0 )

[node name="shape" type="CollisionShape" parent="Building/Floor1/Room7/col" index="0"]

shape = SubResource( 17 )
disabled = false

[node name="Room8" type="MeshInstance" parent="Building/Floor1" index="3"]

transform = Transform( 7, 0, 0, 0, 2.75, 0, 0, 0, 4.25, 0, 0, -5 )
layers = 1
material_override = null
cast_shadow = 1
extra_cull_margin = 0.0
use_in_baked_light = false
lod_min_distance = 0.0
lod_min_hysteresis = 0.0
lod_max_distance = 0.0
lod_max_hysteresis = 0.0
mesh = SubResource( 18 )
skeleton = NodePath("..")
material/0 = null

[node name="col" type="StaticBody" parent="Building/Floor1/Room8" index="0"]

editor/display_folded = true
input_ray_pickable = true
input_capture_on_drag = false
collision_layer = 1
collision_mask = 1
friction = 1.0
bounce = 0.0
constant_linear_velocity = Vector3( 0, 0, 0 )
constant_angular_velocity = Vector3( 0, 0, 0 )

[node name="shape" type="CollisionShape" parent="Building/Floor1/Room8/col" index="0"]

shape = SubResource( 19 )
disabled = false


